{
    "@context": [
      "https://w3id.org/kim/amb/context.jsonld",
      {
        "@language": "de"
      }
    ],
    "name": "Silbenkette als orthographiedidaktisches Instrument",
    "id": "https://go.wwu.de/silbenkette",
    "type": [
      "LearningResource"
    ],
    "publisher": [
      {
        "type": "Person",
        "name": "Prof. Dr. Anne Berkemeier"
      }
    ],
    "educationalLevel": [
      {
        "id": "https://w3id.org/kim/educationalLevel/level_0",
        "prefLabel": {
          "de": "Elementarbereich",
          "en": "Early childhood education"
        }
      }
    ],
    "assesses": [
        {
          "id": "https://example.org/competencies/1",
          "prefLabel": {
            "de": "Awesomeness"
          }
        }
      ],
      "competencyRequired": [
        {
          "id": "https://example.org/competencies/2",
          "prefLabel": {
            "de": "Humor"
          }
        }
      ],
      "teaches": [
        {
          "id": "https://example.org/competencies/3",
          "prefLabel": {
            "de": "Resilience"
          }
        }
      ]
  }
  